Project 1: Exploratory Data Analysis by Joaquin E. Moreno (JEM5638)
…
# Using summarize and group by

by_FG <- group_by(joinedbyrank, Fieldgoals.x)
summarise(by_FG, Shooting = mean(Fieldgoals.y, na.rm = T))

## # A tibble: 38 x 2
##    Fieldgoals.x Shooting
##           <dbl>    <dbl>
##  1         46.9     52  
##  2         49.1     54.8
##  3         49.8     51.2
##  4         50       53.9
##  5         50.4     55.3
##  6         50.8     52.5
##  7         51.1     55.9
##  8         51.2     51.6
##  9         51.4     49  
## 10         51.7     52.1
## # … with 28 more rows
…
